…
<span class='co'># display the nested table</span>
<span class='va'>ri_data_fi</span>
</code></pre></div>

```
# A tibble: 81 x 2
   data_observed_pair_differences effect
   <list>                          <dbl>
 1 <dbl [10]>                      -20  
 2 <dbl [10]>                      -19.5
 3 <dbl [10]>                      -19  
 4 <dbl [10]>                      -18.5
 5 <dbl [10]>                      -18  
 6 <dbl [10]>                      -17.5
 7 <dbl [10]>                      -17  
 8 <dbl [10]>                      -16.5
 9 <dbl [10]>                      -16  
10 <dbl [10]>                      -15.5
# ... with 71 more rows
```
…
<span class='co'># compute the adjusted pair differences</span>
<span class='va'>ri_data_fi</span> <span class='op'>&lt;-</span> <span class='va'>ri_data_fi</span> <span class='op'>%&gt;%</span>
  <span class='fu'>mutate</span><span class='op'>(</span>data_adjusted_pair_difference <span class='op'>=</span> <span class='fu'>map2</span><span class='op'>(</span><span class='va'>data_observed_pair_differences</span>, <span class='va'>effect</span>, <span class='op'>~</span> <span class='fu'>adjusted_pair_difference_function</span><span class='op'>(</span><span class='va'>.x</span>, <span class='va'>.y</span><span class='op'>)</span><span class='op'>)</span><span class='op'>)</span>

<span class='co'># display the table</span>
<span class='va'>ri_data_fi</span>
</code></pre></div>

```
# A tibble: 81 x 3
   data_observed_pair_differences effect data_adjusted_pair_difference
   <list>                          <dbl> <list>                       
 1 <dbl [10]>                      -20   <dbl [10]>                   
 2 <dbl [10]>                      -19.5 <dbl [10]>                   
 3 <dbl [10]>                      -19   <dbl [10]>                   
 4 <dbl [10]>                      -18.5 <dbl [10]>                   
 5 <dbl [10]>                      -18   <dbl [10]>                   
 6 <dbl [10]>                      -17.5 <dbl [10]>                   
 7 <dbl [10]>                      -17   <dbl [10]>                   
 8 <dbl [10]>                      -16.5 <dbl [10]>                   
 9 <dbl [10]>                      -16   <dbl [10]>                   
10 <dbl [10]>                      -15.5 <dbl [10]>                   
# ... with 71 more rows
```
…
<div class="layout-chunk" data-layout="l-body">
<div class="sourceCode"><pre class="sourceCode r"><code class="sourceCode r"><span class='co'># compute the observed mean of adjusted pair differences</span>
<span class='va'>ri_data_fi</span> <span class='op'>&lt;-</span> <span class='va'>ri_data_fi</span> <span class='op'>%&gt;%</span>
  <span class='fu'>mutate</span><span class='op'>(</span>observed_mean_difference <span class='op'>=</span> <span class='fu'>map</span><span class='op'>(</span><span class='va'>data_adjusted_pair_difference</span>, <span class='op'>~</span> <span class='fu'><a href='https://rdrr.io/r/base/mean.html'>mean</a></span><span class='op'>(</span><span class='va'>.</span><span class='op'>)</span><span class='op'>)</span><span class='op'>)</span> <span class='op'>%&gt;%</span>
  <span class='fu'>unnest</span><span class='op'>(</span>cols <span class='op'>=</span> <span class='fu'><a href='https://rdrr.io/r/base/c.html'>c</a></span><span class='op'>(</span><span class='va'>observed_mean_difference</span><span class='op'>)</span><span class='op'>)</span> <span class='op'>%&gt;%</span>
  <span class='fu'>select</span><span class='op'>(</span><span class='op'>-</span><span class='va'>data_observed_pair_differences</span><span class='op'>)</span> <span class='op'>%&gt;%</span>
  <span class='fu'>ungroup</span><span class='op'>(</span><span class='op'>)</span>

<span class='co'># display the table</span>
<span class='va'>ri_data_fi</span>
</code></pre></div>

```
# A tibble: 81 x 3
   effect data_adjusted_pair_difference observed_mean_difference
    <dbl> <list>                                           <dbl>
 1  -20   <dbl [10]>                                        22.4
 2  -19.5 <dbl [10]>                                        21.9
 3  -19   <dbl [10]>                                        21.4
 4  -18.5 <dbl [10]>                                        20.9
 5  -18   <dbl [10]>                                        20.4
 6  -17.5 <dbl [10]>                                        19.9
 7  -17   <dbl [10]>                                        19.4
 8  -16.5 <dbl [10]>                                        18.9
 9  -16   <dbl [10]>                                        18.4
10  -15.5 <dbl [10]>                                        17.9
# ... with 71 more rows
```
…
We run the function:

<div class="layout-chunk" data-layout="l-body">
<div class="sourceCode"><pre class="sourceCode r"><code class="sourceCode r"><span class='co'># compute the test statistic distribution</span>
<span class='va'>ri_data_fi</span> <span class='op'>&lt;-</span> <span class='va'>ri_data_fi</span> <span class='op'>%&gt;%</span>
  <span class='fu'>mutate</span><span class='op'>(</span>randomization_distribution <span class='op'>=</span> <span class='fu'>map</span><span class='op'>(</span><span class='va'>data_adjusted_pair_difference</span>, <span class='op'>~</span> <span class='fu'>function_randomization_distribution</span><span class='op'>(</span><span class='va'>.</span><span class='op'>)</span><span class='op'>)</span><span class='op'>)</span>

<span class='co'># display the table</span>
<span class='va'>ri_data_fi</span>
</code></pre></div>

```
# A tibble: 81 x 4
   effect data_adjusted_pair_d~ observed_mean_dif~ randomization_dist~
    <dbl> <list>                             <dbl> <list>             
 1  -20   <dbl [10]>                          22.4 <dbl [1,024]>      
 2  -19.5 <dbl [10]>                          21.9 <dbl [1,024]>      
 3  -19   <dbl [10]>                          21.4 <dbl [1,024]>      
 4  -18.5 <dbl [10]>                          20.9 <dbl [1,024]>      
 5  -18   <dbl [10]>                          20.4 <dbl [1,024]>      
 6  -17.5 <dbl [10]>                          19.9 <dbl [1,024]>      
 7  -17   <dbl [10]>                          19.4 <dbl [1,024]>      
 8  -16.5 <dbl [10]>                          18.9 <dbl [1,024]>      
 9  -16   <dbl [10]>                          18.4 <dbl [1,024]>      
10  -15.5 <dbl [10]>                          17.9 <dbl [1,024]>      
# ... with 71 more rows
```
…
